{
  "rules": [
    {
      "type": "FILTER",
      "restriction": {
        "type": "EQ",
        "key": "ТИП",
        "value": "ТРАВОЯДНОЕ"
      }
    },
    {
      "type": "COUNT"
    },
    {
      "type": "WRITE_FILE",
      "filename": "chain1_result.txt",
      "pattern": "%s"
    }
  ]
}